{
    "prepare_queue": {
        "installed": [],
        "uninstalled": []
    },
    "config_munge": {
        "files": {
            "config.xml": {
                "parents": {
                    "/*": [
                        {
                            "xml": "<feature name=\"File\"><param name=\"ios-package\" value=\"CDVFile\" /><param name=\"onload\" value=\"true\" /></feature>",
                            "count": 1
                        },
                        {
                            "xml": "<feature name=\"FileTransfer\"><param name=\"ios-package\" value=\"CDVFileTransfer\" /></feature>",
                            "count": 1
                        },
                        {
                            "xml": "<feature name=\"CordovaGoogleMaps\"><param name=\"ios-package\" value=\"CordovaGoogleMaps\" /><param name=\"onload\" value=\"true\" /><param name=\"onreset\" value=\"true\" /></feature>",
                            "count": 1
                        },
                        {
                            "xml": "<feature name=\"Environment\"><param name=\"ios-package\" value=\"Environment\" /></feature>",
                            "count": 1
                        },
                        {
                            "xml": "<feature name=\"External\"><param name=\"ios-package\" value=\"External\" /></feature>",
                            "count": 1
                        },
                        {
                            "xml": "<feature name=\"Geocoder\"><param name=\"ios-package\" value=\"PluginGeocoder\" /></feature>",
                            "count": 1
                        },
                        {
                            "xml": "<feature name=\"Map\"><param name=\"ios-package\" value=\"PluginMap\" /></feature>",
                            "count": 1
                        },
                        {
                            "xml": "<feature name=\"Circle\"><param name=\"ios-package\" value=\"PluginCircle\" /></feature>",
                            "count": 1
                        },
                        {
                            "xml": "<feature name=\"GroundOverlay\"><param name=\"ios-package\" value=\"PluginGroundOverlay\" /></feature>",
                            "count": 1
                        },
                        {
                            "xml": "<feature name=\"KmlOverlay\"><param name=\"ios-package\" value=\"PluginKmlOverlay\" /></feature>",
                            "count": 1
                        },
                        {
                            "xml": "<feature name=\"Marker\"><param name=\"ios-package\" value=\"PluginMarker\" /></feature>",
                            "count": 1
                        },
                        {
                            "xml": "<feature name=\"Polygon\"><param name=\"ios-package\" value=\"PluginPolygon\" /></feature>",
                            "count": 1
                        },
                        {
                            "xml": "<feature name=\"Polyline\"><param name=\"ios-package\" value=\"PluginPolyline\" /></feature>",
                            "count": 1
                        },
                        {
                            "xml": "<feature name=\"TileOverlay\"><param name=\"ios-package\" value=\"PluginTileOverlay\" /></feature>",
                            "count": 1
                        },
                        {
                            "xml": "<feature name=\"MarkerCluster\"><param name=\"ios-package\" value=\"PluginMarkerCluster\" /></feature>",
                            "count": 1
                        }
                    ]
                }
            },
            "*-Info.plist": {
                "parents": {
                    "Google Maps API Key": [
                        {
                            "xml": "<string>AIzaSyCbaUIqOfcyaqXPe8NmPN8-QgUHO9UGv00</string>",
                            "count": 1
                        }
                    ],
                    "NSLocationWhenInUseUsageDescription": [
                        {
                            "xml": "<string>Show your location on the map</string>",
                            "count": 1
                        }
                    ],
                    "NSLocationAlwaysUsageDescription": [
                        {
                            "xml": "<string>Trace your location on the map</string>",
                            "count": 1
                        }
                    ],
                    "LSApplicationQueriesSchemes": [
                        {
                            "xml": "<array><string>googlechromes</string><string>comgooglemaps</string></array>",
                            "count": 1
                        }
                    ],
                    "CFBundleURLTypes": [
                        {
                            "xml": "<array><dict><key>CFBundleTypeRole</key><string>Editor</string><key>CFBundleURLName</key><string>jp.com.dammyappli</string><key>CFBundleURLSchemes</key><array><string>jp.com.dammyappli</string></array></dict></array>",
                            "count": 1
                        }
                    ]
                }
            }
        }
    },
    "installed_plugins": {
        "cordova-plugin-compat": {
            "PACKAGE_NAME": "jp.com.dammyappli"
        },
        "cordova-plugin-file": {
            "PACKAGE_NAME": "jp.com.dammyappli"
        },
        "cordova-plugin-file-transfer": {
            "PACKAGE_NAME": "jp.com.dammyappli"
        },
        "com.googlemaps.ios": {
            "PACKAGE_NAME": "jp.com.dammyappli"
        },
        "cordova-plugin-googlemaps": {
            "API_KEY_FOR_IOS": "AIzaSyCbaUIqOfcyaqXPe8NmPN8-QgUHO9UGv00",
            "LOCATION_WHEN_IN_USE_DESCRIPTION": "Show your location on the map",
            "LOCATION_ALWAYS_USAGE_DESCRIPTION": "Trace your location on the map",
            "PACKAGE_NAME": "jp.com.dammyappli"
        },
        "cordova-plugin-whitelist": {
            "PACKAGE_NAME": "jp.com.dammyappli"
        }
    },
    "dependent_plugins": {},
    "modules": [
        {
            "id": "cordova-plugin-file.DirectoryEntry",
            "file": "plugins/cordova-plugin-file/www/DirectoryEntry.js",
            "pluginId": "cordova-plugin-file",
            "clobbers": [
                "window.DirectoryEntry"
            ]
        },
        {
            "id": "cordova-plugin-file.DirectoryReader",
            "file": "plugins/cordova-plugin-file/www/DirectoryReader.js",
            "pluginId": "cordova-plugin-file",
            "clobbers": [
                "window.DirectoryReader"
            ]
        },
        {
            "id": "cordova-plugin-file.Entry",
            "file": "plugins/cordova-plugin-file/www/Entry.js",
            "pluginId": "cordova-plugin-file",
            "clobbers": [
                "window.Entry"
            ]
        },
        {
            "id": "cordova-plugin-file.File",
            "file": "plugins/cordova-plugin-file/www/File.js",
            "pluginId": "cordova-plugin-file",
            "clobbers": [
                "window.File"
            ]
        },
        {
            "id": "cordova-plugin-file.FileEntry",
            "file": "plugins/cordova-plugin-file/www/FileEntry.js",
            "pluginId": "cordova-plugin-file",
            "clobbers": [
                "window.FileEntry"
            ]
        },
        {
            "id": "cordova-plugin-file.FileError",
            "file": "plugins/cordova-plugin-file/www/FileError.js",
            "pluginId": "cordova-plugin-file",
            "clobbers": [
                "window.FileError"
            ]
        },
        {
            "id": "cordova-plugin-file.FileReader",
            "file": "plugins/cordova-plugin-file/www/FileReader.js",
            "pluginId": "cordova-plugin-file",
            "clobbers": [
                "window.FileReader"
            ]
        },
        {
            "id": "cordova-plugin-file.FileSystem",
            "file": "plugins/cordova-plugin-file/www/FileSystem.js",
            "pluginId": "cordova-plugin-file",
            "clobbers": [
                "window.FileSystem"
            ]
        },
        {
            "id": "cordova-plugin-file.FileUploadOptions",
            "file": "plugins/cordova-plugin-file/www/FileUploadOptions.js",
            "pluginId": "cordova-plugin-file",
            "clobbers": [
                "window.FileUploadOptions"
            ]
        },
        {
            "id": "cordova-plugin-file.FileUploadResult",
            "file": "plugins/cordova-plugin-file/www/FileUploadResult.js",
            "pluginId": "cordova-plugin-file",
            "clobbers": [
                "window.FileUploadResult"
            ]
        },
        {
            "id": "cordova-plugin-file.FileWriter",
            "file": "plugins/cordova-plugin-file/www/FileWriter.js",
            "pluginId": "cordova-plugin-file",
            "clobbers": [
                "window.FileWriter"
            ]
        },
        {
            "id": "cordova-plugin-file.Flags",
            "file": "plugins/cordova-plugin-file/www/Flags.js",
            "pluginId": "cordova-plugin-file",
            "clobbers": [
                "window.Flags"
            ]
        },
        {
            "id": "cordova-plugin-file.LocalFileSystem",
            "file": "plugins/cordova-plugin-file/www/LocalFileSystem.js",
            "pluginId": "cordova-plugin-file",
            "clobbers": [
                "window.LocalFileSystem"
            ],
            "merges": [
                "window"
            ]
        },
        {
            "id": "cordova-plugin-file.Metadata",
            "file": "plugins/cordova-plugin-file/www/Metadata.js",
            "pluginId": "cordova-plugin-file",
            "clobbers": [
                "window.Metadata"
            ]
        },
        {
            "id": "cordova-plugin-file.ProgressEvent",
            "file": "plugins/cordova-plugin-file/www/ProgressEvent.js",
            "pluginId": "cordova-plugin-file",
            "clobbers": [
                "window.ProgressEvent"
            ]
        },
        {
            "id": "cordova-plugin-file.fileSystems",
            "file": "plugins/cordova-plugin-file/www/fileSystems.js",
            "pluginId": "cordova-plugin-file"
        },
        {
            "id": "cordova-plugin-file.requestFileSystem",
            "file": "plugins/cordova-plugin-file/www/requestFileSystem.js",
            "pluginId": "cordova-plugin-file",
            "clobbers": [
                "window.requestFileSystem"
            ]
        },
        {
            "id": "cordova-plugin-file.resolveLocalFileSystemURI",
            "file": "plugins/cordova-plugin-file/www/resolveLocalFileSystemURI.js",
            "pluginId": "cordova-plugin-file",
            "merges": [
                "window"
            ]
        },
        {
            "id": "cordova-plugin-file.isChrome",
            "file": "plugins/cordova-plugin-file/www/browser/isChrome.js",
            "pluginId": "cordova-plugin-file",
            "runs": true
        },
        {
            "id": "cordova-plugin-file.iosFileSystem",
            "file": "plugins/cordova-plugin-file/www/ios/FileSystem.js",
            "pluginId": "cordova-plugin-file",
            "merges": [
                "FileSystem"
            ]
        },
        {
            "id": "cordova-plugin-file.fileSystems-roots",
            "file": "plugins/cordova-plugin-file/www/fileSystems-roots.js",
            "pluginId": "cordova-plugin-file",
            "runs": true
        },
        {
            "id": "cordova-plugin-file.fileSystemPaths",
            "file": "plugins/cordova-plugin-file/www/fileSystemPaths.js",
            "pluginId": "cordova-plugin-file",
            "merges": [
                "cordova"
            ],
            "runs": true
        },
        {
            "id": "cordova-plugin-file-transfer.FileTransferError",
            "file": "plugins/cordova-plugin-file-transfer/www/FileTransferError.js",
            "pluginId": "cordova-plugin-file-transfer",
            "clobbers": [
                "window.FileTransferError"
            ]
        },
        {
            "id": "cordova-plugin-file-transfer.FileTransfer",
            "file": "plugins/cordova-plugin-file-transfer/www/FileTransfer.js",
            "pluginId": "cordova-plugin-file-transfer",
            "clobbers": [
                "window.FileTransfer"
            ]
        },
        {
            "id": "cordova-plugin-googlemaps.BaseClass",
            "file": "plugins/cordova-plugin-googlemaps/www/BaseClass.js",
            "pluginId": "cordova-plugin-googlemaps",
            "runs": true
        },
        {
            "id": "cordova-plugin-googlemaps.BaseArrayClass",
            "file": "plugins/cordova-plugin-googlemaps/www/BaseArrayClass.js",
            "pluginId": "cordova-plugin-googlemaps",
            "runs": true
        },
        {
            "id": "cordova-plugin-googlemaps.LatLng",
            "file": "plugins/cordova-plugin-googlemaps/www/LatLng.js",
            "pluginId": "cordova-plugin-googlemaps",
            "runs": true
        },
        {
            "id": "cordova-plugin-googlemaps.LatLngBounds",
            "file": "plugins/cordova-plugin-googlemaps/www/LatLngBounds.js",
            "pluginId": "cordova-plugin-googlemaps",
            "runs": true
        },
        {
            "id": "cordova-plugin-googlemaps.VisibleRegion",
            "file": "plugins/cordova-plugin-googlemaps/www/VisibleRegion.js",
            "pluginId": "cordova-plugin-googlemaps",
            "runs": true
        },
        {
            "id": "cordova-plugin-googlemaps.Location",
            "file": "plugins/cordova-plugin-googlemaps/www/Location.js",
            "pluginId": "cordova-plugin-googlemaps",
            "runs": true
        },
        {
            "id": "cordova-plugin-googlemaps.CameraPosition",
            "file": "plugins/cordova-plugin-googlemaps/www/CameraPosition.js",
            "pluginId": "cordova-plugin-googlemaps",
            "runs": true
        },
        {
            "id": "cordova-plugin-googlemaps.Polyline",
            "file": "plugins/cordova-plugin-googlemaps/www/Polyline.js",
            "pluginId": "cordova-plugin-googlemaps",
            "runs": true
        },
        {
            "id": "cordova-plugin-googlemaps.Polygon",
            "file": "plugins/cordova-plugin-googlemaps/www/Polygon.js",
            "pluginId": "cordova-plugin-googlemaps",
            "runs": true
        },
        {
            "id": "cordova-plugin-googlemaps.Marker",
            "file": "plugins/cordova-plugin-googlemaps/www/Marker.js",
            "pluginId": "cordova-plugin-googlemaps",
            "runs": true
        },
        {
            "id": "cordova-plugin-googlemaps.HtmlInfoWindow",
            "file": "plugins/cordova-plugin-googlemaps/www/HtmlInfoWindow.js",
            "pluginId": "cordova-plugin-googlemaps",
            "runs": true
        },
        {
            "id": "cordova-plugin-googlemaps.Circle",
            "file": "plugins/cordova-plugin-googlemaps/www/Circle.js",
            "pluginId": "cordova-plugin-googlemaps",
            "runs": true
        },
        {
            "id": "cordova-plugin-googlemaps.TileOverlay",
            "file": "plugins/cordova-plugin-googlemaps/www/TileOverlay.js",
            "pluginId": "cordova-plugin-googlemaps",
            "runs": true
        },
        {
            "id": "cordova-plugin-googlemaps.GroundOverlay",
            "file": "plugins/cordova-plugin-googlemaps/www/GroundOverlay.js",
            "pluginId": "cordova-plugin-googlemaps",
            "runs": true
        },
        {
            "id": "cordova-plugin-googlemaps.Common",
            "file": "plugins/cordova-plugin-googlemaps/www/Common.js",
            "pluginId": "cordova-plugin-googlemaps",
            "runs": true
        },
        {
            "id": "cordova-plugin-googlemaps.encoding",
            "file": "plugins/cordova-plugin-googlemaps/www/encoding.js",
            "pluginId": "cordova-plugin-googlemaps",
            "runs": true
        },
        {
            "id": "cordova-plugin-googlemaps.spherical",
            "file": "plugins/cordova-plugin-googlemaps/www/spherical.js",
            "pluginId": "cordova-plugin-googlemaps",
            "runs": true
        },
        {
            "id": "cordova-plugin-googlemaps.Geocoder",
            "file": "plugins/cordova-plugin-googlemaps/www/Geocoder.js",
            "pluginId": "cordova-plugin-googlemaps",
            "runs": true
        },
        {
            "id": "cordova-plugin-googlemaps.ExternalService",
            "file": "plugins/cordova-plugin-googlemaps/www/ExternalService.js",
            "pluginId": "cordova-plugin-googlemaps",
            "runs": true
        },
        {
            "id": "cordova-plugin-googlemaps.Map",
            "file": "plugins/cordova-plugin-googlemaps/www/Map.js",
            "pluginId": "cordova-plugin-googlemaps",
            "runs": true
        },
        {
            "id": "cordova-plugin-googlemaps.event",
            "file": "plugins/cordova-plugin-googlemaps/www/event.js",
            "pluginId": "cordova-plugin-googlemaps",
            "runs": true
        },
        {
            "id": "cordova-plugin-googlemaps.MapTypeId",
            "file": "plugins/cordova-plugin-googlemaps/www/MapTypeId.js",
            "pluginId": "cordova-plugin-googlemaps",
            "runs": true
        },
        {
            "id": "cordova-plugin-googlemaps.KmlOverlay",
            "file": "plugins/cordova-plugin-googlemaps/www/KmlOverlay.js",
            "pluginId": "cordova-plugin-googlemaps",
            "runs": true
        },
        {
            "id": "cordova-plugin-googlemaps.Environment",
            "file": "plugins/cordova-plugin-googlemaps/www/Environment.js",
            "pluginId": "cordova-plugin-googlemaps",
            "runs": true
        },
        {
            "id": "cordova-plugin-googlemaps.MarkerCluster",
            "file": "plugins/cordova-plugin-googlemaps/www/MarkerCluster.js",
            "pluginId": "cordova-plugin-googlemaps",
            "runs": true
        },
        {
            "id": "cordova-plugin-googlemaps.Cluster",
            "file": "plugins/cordova-plugin-googlemaps/www/Cluster.js",
            "pluginId": "cordova-plugin-googlemaps",
            "runs": true
        },
        {
            "id": "cordova-plugin-googlemaps.geomodel",
            "file": "plugins/cordova-plugin-googlemaps/www/geomodel.js",
            "pluginId": "cordova-plugin-googlemaps",
            "runs": true
        },
        {
            "id": "cordova-plugin-googlemaps.CordovaGoogleMaps",
            "file": "plugins/cordova-plugin-googlemaps/www/googlemaps-cdv-plugin.js",
            "pluginId": "cordova-plugin-googlemaps",
            "clobbers": [
                "plugin.google.maps"
            ]
        }
    ],
    "plugin_metadata": {
        "cordova-plugin-compat": "1.1.0",
        "cordova-plugin-file": "4.3.3",
        "cordova-plugin-file-transfer": "1.6.3",
        "com.googlemaps.ios": "2.4.0",
        "cordova-plugin-googlemaps": "2.0.7-beta-20170913-2007",
        "cordova-plugin-whitelist": "1.3.2"
    }
}