{
    "prepare_queue": {
        "installed": [],
        "uninstalled": []
    },
    "config_munge": {
        "files": {}
    },
    "installed_plugins": {
        "cordova-plugin-file-transfer": {
            "PACKAGE_NAME": "jp.com.dammyappli"
        },
        "cordova-plugin-whitelist": {
            "PACKAGE_NAME": "jp.com.dammyappli"
        },
        "cordova-plugin-googlemaps": {
            "API_KEY_FOR_ANDROID": "AIzaSyCFZm8Yg76d3W4AWM4pSrmxHvxMp-kuKw0",
            "PACKAGE_NAME": "jp.com.dammyappli"
        }
    },
    "dependent_plugins": {
        "cordova-plugin-compat": {
            "PACKAGE_NAME": "jp.com.dammyappli"
        },
        "cordova-plugin-file": {
            "PACKAGE_NAME": "jp.com.dammyappli"
        }
    }
}