{
    "prepare_queue": {
        "installed": [],
        "uninstalled": []
    },
    "config_munge": {
        "files": {}
    },
    "installed_plugins": {
        "cordova-plugin-file-transfer": {
            "PACKAGE_NAME": "jp.com.dammyappli"
        },
        "cordova-plugin-googlemaps": {
            "API_KEY_FOR_IOS": "AIzaSyCbaUIqOfcyaqXPe8NmPN8-QgUHO9UGv00",
            "LOCATION_WHEN_IN_USE_DESCRIPTION": "Show your location on the map",
            "LOCATION_ALWAYS_USAGE_DESCRIPTION": "Trace your location on the map",
            "PACKAGE_NAME": "jp.com.dammyappli"
        },
        "cordova-plugin-whitelist": {
            "PACKAGE_NAME": "jp.com.dammyappli"
        }
    },
    "dependent_plugins": {
        "cordova-plugin-compat": {
            "PACKAGE_NAME": "jp.com.dammyappli"
        },
        "cordova-plugin-file": {
            "PACKAGE_NAME": "jp.com.dammyappli"
        },
        "com.googlemaps.ios": {
            "PACKAGE_NAME": "jp.com.dammyappli"
        }
    }
}